Random extinction — RandomExtinctions • NetworkExtinction
…
#> Warning: Your network become completely unconnected before all primary extinctions were simulated. This happened at extinction step 23 out of 30
#>   |                                                                              |========================================================              |  80%
#> Warning: Your network become completely unconnected before all primary extinctions were simulated. This happened at extinction step 27 out of 30
#>   |                                                                              |============================================================          |  85%
#> Warning: Density is not well-defined for networks of order 0.
#> Warning: Density is not well-defined for networks of order 0.
#> Warning: Your network become completely unconnected before all primary extinctions were simulated. This happened at extinction step 27 out of 30
#>   |                                                                              |===============================================================       |  90%
#> Warning: Density is not well-defined for networks of order 0.
#>   |                                                                              |==================================================================    |  95%
#> Warning: Density is not well-defined for networks of order 0.
#> Warning: Your network become completely unconnected before all primary extinctions were simulated. This happened at extinction step 26 out of 30
#>   |                                                                              |======================================================================| 100%
#> $sims
#> # A tibble: 30 × 5
#>    NumExt AccSecExt_95CI AccSecExt_mean Upper Lower
#>     <int>          <dbl>          <dbl> <dbl> <dbl>
#>  1      1          0               0    0         0
#>  2      2          0.603           0.1  0.703     0
#>  3      3          1.35            0.5  1.85      0
#>  4      4          1.94            0.85 2.79      0
#>  5      5          2.40            1.15 3.55      0
#>  6      6          3.27            1.5  4.77      0
#>  7      7          3.95            1.8  5.75      0
#>  8      8          4.49            2.25 6.74      0
#>  9      9          4.56            2.45 7.01      0
#> 10     10          4.60            2.65 7.25      0
#> # … with 20 more rows
…
