Random extinction — RandomExtinctions • NetworkExtinction
…
#> 13
#> 14
#> 15
#> 16
#> 17
#> 18
#> 19
#> 20
#> 21
#> 22
#> 23
#> 24
#> Simulation 20 of 20 ready
#> $sims
#> # A tibble: 29 x 3
#>    NumExt SdAccSecondaryExtinction AccSecondaryExtinction
#>     <int>                    <dbl>                  <dbl>
#>  1      1                    0.277                 0.0769
#>  2      2                    0.555                 0.154 
#>  3      3                    0.877                 0.462 
#>  4      4                    1.09                  0.769 
#>  5      5                    1.66                  1.46  
#>  6      6                    1.58                  2     
#>  7      7                    1.81                  2.54  
#>  8      8                    1.98                  2.62  
#>  9      9                    2.33                  3.08  
#> 10     10                    2.43                  3.38  
#> # … with 19 more rows
…
